Lab2/LockSystem/LockSystem.vcd
$date
	Mon May 01 11:24:57 2017
$end
$version
	Icarus Verilog
$end
$timescale
	1s
$end
$scope module testBench $end
$scope module dut $end
$var wire 1 ! clk $end
$var wire 1 " clok $end
$var wire 1 # dec_water_level $end
$var wire 1 $ inc_water_level $end
$var wire 1 % inner_door_sw $end
$var wire 1 & inner_gondola_arrival_sw $end
$var wire 1 ' outer_door_sw $end
$var wire 1 ( outer_gondola_arrival_sw $end
$var wire 1 ) reset $end
$var wire 1 * rst $end
$var wire 32 + water_level [31:0] $end
$var wire 4 , state [3:0] $end
$var wire 1 - outer_gondola_led $end
$var wire 1 . outer_gondola_arrival_en $end
$var wire 1 / outer_door_openable_led $end
$var wire 1 0 outer_door_en $end
$var wire 1 1 inner_gondola_led $end
$var wire 1 2 inner_gondola_arrival_en $end
$var wire 1 3 inner_door_openable_led $end
$var wire 1 4 inner_door_en $end
$var wire 1 5 inc_water_level_en $end
$var wire 1 6 dec_water_level_en $end
$var wire 7 7 HEX5 [6:0] $end
$var wire 7 8 HEX4 [6:0] $end
$var wire 7 9 HEX3 [6:0] $end
$var wire 7 : HEX2 [6:0] $end
$var wire 7 ; HEX1 [6:0] $end
$var wire 7 < HEX0 [6:0] $end
$upscope $end
$upscope $end
$enddefinitions $end
#0
$dumpvars
bx <
bx ;
bx :
bx 9
bx 8
bx 7
16
15
x4
x3
x2
x1
x0
x/
x.
x-
bx ,
bx +
0*
1)
0(
0'
0&
0%
0$
0#
z"
0!
$end
#20
b1111111 <
b1111111 ;
b1111001 :
b1001111 9
b1111111 8
b1111111 7
1/
03
b0 +
b0 ,
0-
01
1!
#40
0)
1*
0!
#60
13
0/
b11111111111111111111111111001110 +
1!
#80
0!
#100
1.
03
b100101100000 +
1(
1!
#120
0!
#140
b111111 <
b1000 ,
1-
03
b100100101110 +
1!
#160
0!
#180
03
b100011111100 +
1!
#200
0!
#220
03
b100011001010 +
1!
#240
0!
#260
b100010011000 +
1!
#280
0!
#300
b100001100110 +
1!
#320
0!
#340
b100000110100 +
1!
#360
0!
#380
b100000000010 +
1!
#400
0!
#420
b11111010000 +
1!
#440
0!
#460
b11110011110 +
1!
#480
0!
#500
b11101101100 +
1!
#520
0!
#540
b11100111010 +
1!
#560
10
1'
0!
#580
b11100001000 +
0'
1!
#600
0$
0!
#620
b11011010110 +
0$
1!
#640
0$
0!
#660
b11010100100 +
0$
1!
#680
0$
0!
#700
b11001110010 +
0$
1!
#720
0$
0!
#740
b11001000000 +
0$
1!
#760
0$
0!
#780
b11000001110 +
0$
1!
#800
0$
0!
#820
b10111011100 +
0$
1!
#840
0$
0!
#860
b10110101010 +
0$
1!
#880
0$
0!
#900
b10101111000 +
0$
1!
#920
14
1%
0!
#940
b10101000110 +
0%
1!
#960
0!
#980
b10100010100 +
1!
#1000
0!
#1020
b10011100010 +
1!
#1040
0!
#1060
b10010110000 +
1!
#1080
0!
#1100
b10001111110 +
1!
#1120
0!
#1140
b10001001100 +
1!
#1160
0!
#1180
b10000011010 +
1!
#1200
0!
#1220
b1111101000 +
1!
#1240
0!
#1260
b1110110110 +
1!
#1280
0!
#1300
b1110000100 +
1!
#1320
0!
#1340
b1101010010 +
1!
#1360
0!
#1380
b1100100000 +
1!
#1400
0!
#1420
b1011101110 +
1!
#1440
0!
#1460
b1010111100 +
1!
#1480
0!
#1500
b1010001010 +
1!
#1520
0!
#1540
b1001011000 +
1!
#1560
0!
#1580
b1000100110 +
1!
#1600
0!
#1620
b111110100 +
1!
#1640
0!
#1660
b111000010 +
1!
#1680
0!
#1700
b110010000 +
1!
#1720
0!
#1740
b101011110 +
1!
