Lab2/LockSystem/LockSystem.vcd
$date
	Mon May  1 09:32:12 2017
$end
$version
	Icarus Verilog
$end
$timescale
	1s
$end
$scope module testBench $end
$scope module dut $end
$var wire 1 ! clk $end
$var wire 1 " dec_water_level $end
$var wire 1 # inc_water_level $end
$var wire 1 $ inner_door_sw $end
$var wire 1 % inner_gondola_arrival_sw $end
$var wire 1 & outer_door_sw $end
$var wire 1 ' outer_gondola_arrival_sw $end
$var wire 1 ( reset $end
$var wire 1 ) rst $end
$var wire 32 * water_level [31:0] $end
$var wire 4 + state [3:0] $end
$var wire 1 , outer_gondola_led $end
$var wire 1 - outer_gondola_arrival_en $end
$var wire 1 . outer_door_openable_led $end
$var wire 1 / outer_door_en $end
$var wire 1 0 inner_gondola_led $end
$var wire 1 1 inner_gondola_arrival_en $end
$var wire 1 2 inner_door_openable_led $end
$var wire 1 3 inner_door_en $end
$var wire 1 4 inc_water_level_en $end
$var wire 1 5 dec_water_level_en $end
$var wire 7 6 HEX5 [6:0] $end
$var wire 7 7 HEX4 [6:0] $end
$var wire 7 8 HEX3 [6:0] $end
$var wire 7 9 HEX2 [6:0] $end
$var wire 7 : HEX1 [6:0] $end
$var wire 7 ; HEX0 [6:0] $end
$upscope $end
$upscope $end
$enddefinitions $end
#0
$dumpvars
bx ;
bx :
bx 9
bx 8
bx 7
bx 6
x5
x4
x3
x2
x1
x0
x/
x.
x-
x,
bx +
bx *
0)
1(
0'
0&
0%
0$
0#
0"
0!
$end
#20
b1111111 ;
b1111111 :
b1111001 9
b1001111 8
b1111111 7
b1111111 6
03
0/
0-
01
04
05
1.
02
b0 *
b0 +
0,
00
1!
#40
0(
1)
0!
#60
1!
#80
0!
#100
1-
1'
1!
#120
0!
#140
b111111 ;
0-
b1000 +
1,
1!
#160
0!
#180
1!
#200
0!
#220
1!
#240
0!
#260
1!
#280
0!
#300
1!
#320
0!
#340
1!
#360
0!
#380
1!
#400
0!
#420
1!
#440
0!
#460
1!
#480
0!
#500
1!
#520
0!
#540
1!
#560
1&
0!
#580
0&
1!
#600
0#
0!
#620
0#
1!
#640
0#
0!
#660
0#
1!
#680
0#
0!
#700
0#
1!
#720
0#
0!
#740
0#
1!
#760
0#
0!
#780
0#
1!
#800
0#
0!
#820
0#
1!
#840
0#
0!
#860
0#
1!
#880
0#
0!
#900
0#
1!
#920
1$
0!
#940
0$
1!
